{
  "nome": "Ana Maria",
  "sobrenome": "Braga",
  "idade": "80",
  "telefone": "1155555555",
  "email": "lorojose@hotmail.com",
  "cpf": "44629875583",
  "endereco": "Avenida Brigadeiro",
  "numero": "7",
  "cidade": "Sao Paulo",
  "estado": "SP",
  "bairro": "Centro"
}